{
    "name": "python3-requests",
    "buildsystem": "simple",
    "build-commands": [
        "pip3 install --exists-action=i --no-index --find-links=\"file://${PWD}\" --prefix=${FLATPAK_DEST} \"requests\""
    ],
    "sources": [
        {
            "type": "file",
            "url": "https://files.pythonhosted.org/packages/5e/c4/6c4fe722df5343c33226f0b4e0bb042e4dc13483228b4718baf286f86d87/certifi-2020.6.20-py2.py3-none-any.whl",
            "sha256": "8fc0819f1f30ba15bdb34cceffb9ef04d99f420f68eb75d901e9560b8749fc41"
        },
        {
            "type": "file",
            "url": "https://files.pythonhosted.org/packages/bc/a9/01ffebfb562e4274b6487b4bb1ddec7ca55ec7510b22e4c51f14098443b8/chardet-3.0.4-py2.py3-none-any.whl",
            "sha256": "fc323ffcaeaed0e0a02bf4d117757b98aed530d9ed4531e3e15460124c106691"
        },
        {
            "type": "file",
            "url": "https://files.pythonhosted.org/packages/a2/38/928ddce2273eaa564f6f50de919327bf3a00f091b5baba8dfa9460f3a8a8/idna-2.10-py2.py3-none-any.whl",
            "sha256": "b97d804b1e9b523befed77c48dacec60e6dcb0b5391d57af6a65a312a90648c0"
        },
        {
            "type": "file",
            "url": "https://files.pythonhosted.org/packages/9f/f0/a391d1463ebb1b233795cabfc0ef38d3db4442339de68f847026199e69d7/urllib3-1.25.10-py2.py3-none-any.whl",
            "sha256": "e7983572181f5e1522d9c98453462384ee92a0be7fac5f1413a1e35c56cc0461"
        },
        {
            "type": "file",
            "url": "https://files.pythonhosted.org/packages/45/1e/0c169c6a5381e241ba7404532c16a21d86ab872c9bed8bdcd4c423954103/requests-2.24.0-py2.py3-none-any.whl",
            "sha256": "fe75cc94a9443b9246fc7049224f75604b113c36acb93f87b80ed42c44cbb898"
        }
    ]
}